<?xml version="1.0" encoding="UTF-8" standalone="no"?>
<graphml xmlns="http://graphml.graphdrawing.org/xmlns" xmlns:java="http://www.yworks.com/xml/yfiles-common/1.0/java" xmlns:sys="http://www.yworks.com/xml/yfiles-common/markup/primitives/2.0" xmlns:x="http://www.yworks.com/xml/yfiles-common/markup/2.0" xmlns:xsi="http://www.w3.org/2001/XMLSchema-instance" xmlns:y="http://www.yworks.com/xml/graphml" xmlns:yed="http://www.yworks.com/xml/yed/3" xsi:schemaLocation="http://graphml.graphdrawing.org/xmlns http://www.yworks.com/xml/schema/graphml/1.1/ygraphml.xsd">
  <!--Created by yEd 3.19.1.1-->
  <key attr.name="Description" attr.type="string" for="graph" id="d0"/>
  <key for="port" id="d1" yfiles.type="portgraphics"/>
  <key for="port" id="d2" yfiles.type="portgeometry"/>
  <key for="port" id="d3" yfiles.type="portuserdata"/>
  <key attr.name="url" attr.type="string" for="node" id="d4"/>
  <key attr.name="description" attr.type="string" for="node" id="d5"/>
  <key for="node" id="d6" yfiles.type="nodegraphics"/>
  <key for="graphml" id="d7" yfiles.type="resources"/>
  <key attr.name="url" attr.type="string" for="edge" id="d8"/>
  <key attr.name="description" attr.type="string" for="edge" id="d9"/>
  <key for="edge" id="d10" yfiles.type="edgegraphics"/>
  <graph edgedefault="directed" id="G">
    <data key="d0" xml:space="preserve"/>
    <node id="n0" yfiles.foldertype="group">
      <data key="d4" xml:space="preserve"/>
      <data key="d6">
        <y:ProxyAutoBoundsNode>
          <y:Realizers active="0">
            <y:GroupNode>
              <y:Geometry height="400.5522547468354" width="1094.5507936507938" x="1496.3126984126984" y="-53.0913172468355"/>
              <y:Fill color="#F5F5F500" transparent="false"/>
              <y:BorderStyle color="#000000" type="dashed" width="1.0"/>
              <y:NodeLabel alignment="right" autoSizePolicy="node_width" backgroundColor="#EBEBEB33" borderDistance="0.0" fontFamily="Dialog" fontSize="15" fontStyle="plain" hasLineColor="false" height="21.4609375" horizontalTextPosition="center" iconTextGap="4" modelName="internal" modelPosition="t" textColor="#000000" verticalTextPosition="bottom" visible="true" width="1094.5507936507938" x="0.0" xml:space="preserve" y="0.0">Common Implementations</y:NodeLabel>
              <y:Shape type="roundrectangle"/>
              <y:State closed="false" closedHeight="50.0" closedWidth="50.0" innerGraphDisplayEnabled="false"/>
              <y:Insets bottom="15" bottomF="15.0" left="15" leftF="15.0" right="15" rightF="15.0" top="15" topF="15.0"/>
              <y:BorderInsets bottom="0" bottomF="5.6843418860808015E-14" left="0" leftF="0.0" right="0" rightF="0.0" top="0" topF="0.0"/>
            </y:GroupNode>
            <y:GroupNode>
              <y:Geometry height="50.0" width="50.0" x="0.0" y="60.0"/>
              <y:Fill color="#F5F5F5" transparent="false"/>
              <y:BorderStyle color="#000000" type="dashed" width="1.0"/>
              <y:NodeLabel alignment="right" autoSizePolicy="node_width" backgroundColor="#EBEBEB" borderDistance="0.0" fontFamily="Dialog" fontSize="15" fontStyle="plain" hasLineColor="false" height="21.4609375" horizontalTextPosition="center" iconTextGap="4" modelName="internal" modelPosition="t" textColor="#000000" verticalTextPosition="bottom" visible="true" width="65.201171875" x="-7.6005859375" xml:space="preserve" y="0.0">Folder 8</y:NodeLabel>
              <y:Shape type="roundrectangle"/>
              <y:State closed="true" closedHeight="50.0" closedWidth="50.0" innerGraphDisplayEnabled="false"/>
              <y:Insets bottom="5" bottomF="5.0" left="5" leftF="5.0" right="5" rightF="5.0" top="5" topF="5.0"/>
              <y:BorderInsets bottom="0" bottomF="0.0" left="0" leftF="0.0" right="0" rightF="0.0" top="0" topF="0.0"/>
            </y:GroupNode>
          </y:Realizers>
        </y:ProxyAutoBoundsNode>
      </data>
      <graph edgedefault="directed" id="n0:">
        <node id="n0::n0" yfiles.foldertype="group">
          <data key="d4" xml:space="preserve"/>
          <data key="d6">
            <y:ProxyAutoBoundsNode>
              <y:Realizers active="0">
                <y:GroupNode>
                  <y:Geometry height="79.4609375" width="520.0" x="1511.3126984126984" y="-5.860937500000034"/>
                  <y:Fill color="#F5F5F500" transparent="false"/>
                  <y:BorderStyle color="#000000" type="dashed" width="1.0"/>
                  <y:NodeLabel alignment="right" autoSizePolicy="node_width" backgroundColor="#EBEBEB33" borderDistance="0.0" fontFamily="Dialog" fontSize="15" fontStyle="plain" hasLineColor="false" height="21.4609375" horizontalTextPosition="center" iconTextGap="4" modelName="internal" modelPosition="t" textColor="#000000" verticalTextPosition="bottom" visible="true" width="520.0" x="0.0" xml:space="preserve" y="0.0">Verbs</y:NodeLabel>
                  <y:Shape type="roundrectangle"/>
                  <y:State closed="false" closedHeight="50.0" closedWidth="50.0" innerGraphDisplayEnabled="false"/>
                  <y:Insets bottom="15" bottomF="15.0" left="15" leftF="15.0" right="15" rightF="15.0" top="15" topF="15.0"/>
                  <y:BorderInsets bottom="0" bottomF="0.0" left="0" leftF="0.0" right="0" rightF="0.0" top="0" topF="0.0"/>
                </y:GroupNode>
                <y:GroupNode>
                  <y:Geometry height="50.0" width="50.0" x="0.0" y="60.0"/>
                  <y:Fill color="#F5F5F5" transparent="false"/>
                  <y:BorderStyle color="#000000" type="dashed" width="1.0"/>
                  <y:NodeLabel alignment="right" autoSizePolicy="node_width" backgroundColor="#EBEBEB" borderDistance="0.0" fontFamily="Dialog" fontSize="15" fontStyle="plain" hasLineColor="false" height="21.4609375" horizontalTextPosition="center" iconTextGap="4" modelName="internal" modelPosition="t" textColor="#000000" verticalTextPosition="bottom" visible="true" width="65.201171875" x="-7.6005859375" xml:space="preserve" y="0.0">Folder 6</y:NodeLabel>
                  <y:Shape type="roundrectangle"/>
                  <y:State closed="true" closedHeight="50.0" closedWidth="50.0" innerGraphDisplayEnabled="false"/>
                  <y:Insets bottom="5" bottomF="5.0" left="5" leftF="5.0" right="5" rightF="5.0" top="5" topF="5.0"/>
                  <y:BorderInsets bottom="0" bottomF="0.0" left="0" leftF="0.0" right="0" rightF="0.0" top="0" topF="0.0"/>
                </y:GroupNode>
              </y:Realizers>
            </y:ProxyAutoBoundsNode>
          </data>
          <graph edgedefault="directed" id="n0::n0:">
            <node id="n0::n0::n0">
              <data key="d4" xml:space="preserve"/>
              <data key="d6">
                <y:UMLClassNode>
                  <y:Geometry height="28.0" width="100.0" x="1786.3126984126984" y="30.599999999999966"/>
                  <y:Fill color="#00FF00" transparent="false"/>
                  <y:BorderStyle color="#000000" type="line" width="1.0"/>
                  <y:NodeLabel alignment="center" autoSizePolicy="content" fontFamily="Dialog" fontSize="13" fontStyle="bold" hasBackgroundColor="false" hasLineColor="false" height="19.1328125" horizontalTextPosition="center" iconTextGap="4" modelName="custom" textColor="#000000" verticalTextPosition="bottom" visible="true" width="43.0888671875" x="28.45556640625" xml:space="preserve" y="3.0">PutIn<y:LabelModel><y:SmartNodeLabelModel distance="4.0"/></y:LabelModel><y:ModelParameter><y:SmartNodeLabelModelParameter labelRatioX="0.0" labelRatioY="0.0" nodeRatioX="0.0" nodeRatioY="0.0" offsetX="0.0" offsetY="0.0" upX="0.0" upY="-1.0"/></y:ModelParameter></y:NodeLabel>
                  <y:UML clipContent="true" constraint="" hasDetailsColor="false" omitDetails="false" stereotype="" use3DEffect="true">
                    <y:AttributeLabel xml:space="preserve"/>
                    <y:MethodLabel xml:space="preserve"/>
                  </y:UML>
                </y:UMLClassNode>
              </data>
            </node>
            <node id="n0::n0::n1">
              <data key="d4" xml:space="preserve"/>
              <data key="d6">
                <y:UMLClassNode>
                  <y:Geometry height="28.0" width="100.0" x="1656.3126984126984" y="30.599999999999966"/>
                  <y:Fill color="#00FF00" transparent="false"/>
                  <y:BorderStyle color="#000000" type="line" width="1.0"/>
                  <y:NodeLabel alignment="center" autoSizePolicy="content" fontFamily="Dialog" fontSize="13" fontStyle="bold" hasBackgroundColor="false" hasLineColor="false" height="19.1328125" horizontalTextPosition="center" iconTextGap="4" modelName="custom" textColor="#000000" verticalTextPosition="bottom" visible="true" width="39.1025390625" x="30.44873046875" xml:space="preserve" y="3.0">Take<y:LabelModel><y:SmartNodeLabelModel distance="4.0"/></y:LabelModel><y:ModelParameter><y:SmartNodeLabelModelParameter labelRatioX="0.0" labelRatioY="0.0" nodeRatioX="0.0" nodeRatioY="0.0" offsetX="0.0" offsetY="0.0" upX="0.0" upY="-1.0"/></y:ModelParameter></y:NodeLabel>
                  <y:UML clipContent="true" constraint="" hasDetailsColor="false" omitDetails="false" stereotype="" use3DEffect="true">
                    <y:AttributeLabel xml:space="preserve"/>
                    <y:MethodLabel xml:space="preserve"/>
                  </y:UML>
                </y:UMLClassNode>
              </data>
            </node>
            <node id="n0::n0::n2">
              <data key="d4" xml:space="preserve"/>
              <data key="d6">
                <y:UMLClassNode>
                  <y:Geometry height="28.0" width="100.0" x="1916.3126984126984" y="30.599999999999966"/>
                  <y:Fill color="#00FF00" transparent="false"/>
                  <y:BorderStyle color="#000000" type="line" width="1.0"/>
                  <y:NodeLabel alignment="center" autoSizePolicy="content" fontFamily="Dialog" fontSize="13" fontStyle="bold" hasBackgroundColor="false" hasLineColor="false" height="19.1328125" horizontalTextPosition="center" iconTextGap="4" modelName="custom" textColor="#000000" verticalTextPosition="bottom" visible="true" width="38.79150390625" x="30.604248046875" xml:space="preserve" y="3.0">Look<y:LabelModel><y:SmartNodeLabelModel distance="4.0"/></y:LabelModel><y:ModelParameter><y:SmartNodeLabelModelParameter labelRatioX="0.0" labelRatioY="0.0" nodeRatioX="0.0" nodeRatioY="0.0" offsetX="0.0" offsetY="0.0" upX="0.0" upY="-1.0"/></y:ModelParameter></y:NodeLabel>
                  <y:UML clipContent="true" constraint="" hasDetailsColor="false" omitDetails="false" stereotype="" use3DEffect="true">
                    <y:AttributeLabel xml:space="preserve"/>
                    <y:MethodLabel xml:space="preserve"/>
                  </y:UML>
                </y:UMLClassNode>
              </data>
            </node>
            <node id="n0::n0::n3">
              <data key="d4" xml:space="preserve"/>
              <data key="d5"/>
              <data key="d6">
                <y:UMLClassNode>
                  <y:Geometry height="28.0" width="100.0" x="1526.3126984126984" y="30.599999999999966"/>
                  <y:Fill color="#00FF00" transparent="false"/>
                  <y:BorderStyle color="#000000" type="line" width="1.0"/>
                  <y:NodeLabel alignment="center" autoSizePolicy="content" fontFamily="Dialog" fontSize="13" fontStyle="bold" hasBackgroundColor="false" hasLineColor="false" height="19.1328125" horizontalTextPosition="center" iconTextGap="4" modelName="custom" textColor="#000000" verticalTextPosition="bottom" visible="true" width="34.9765625" x="32.51171875" xml:space="preserve" y="3.0">Quit<y:LabelModel><y:SmartNodeLabelModel distance="4.0"/></y:LabelModel><y:ModelParameter><y:SmartNodeLabelModelParameter labelRatioX="0.0" labelRatioY="0.0" nodeRatioX="0.0" nodeRatioY="0.0" offsetX="0.0" offsetY="0.0" upX="0.0" upY="-1.0"/></y:ModelParameter></y:NodeLabel>
                  <y:UML clipContent="true" constraint="" hasDetailsColor="false" omitDetails="false" stereotype="" use3DEffect="true">
                    <y:AttributeLabel xml:space="preserve"/>
                    <y:MethodLabel xml:space="preserve"/>
                  </y:UML>
                </y:UMLClassNode>
              </data>
            </node>
          </graph>
        </node>
        <node id="n0::n1" yfiles.foldertype="group">
          <data key="d4" xml:space="preserve"/>
          <data key="d6">
            <y:ProxyAutoBoundsNode>
              <y:Realizers active="0">
                <y:GroupNode>
                  <y:Geometry height="344.2607594936709" width="345.5507936507938" x="2061.3126984126984" y="-16.6303797468355"/>
                  <y:Fill color="#F5F5F500" transparent="false"/>
                  <y:BorderStyle color="#000000" type="dashed" width="1.0"/>
                  <y:NodeLabel alignment="right" autoSizePolicy="node_width" backgroundColor="#EBEBEB33" borderDistance="0.0" fontFamily="Dialog" fontSize="15" fontStyle="plain" hasLineColor="false" height="21.4609375" horizontalTextPosition="center" iconTextGap="4" modelName="internal" modelPosition="t" textColor="#000000" verticalTextPosition="bottom" visible="true" width="345.5507936507938" x="0.0" xml:space="preserve" y="0.0">Items</y:NodeLabel>
                  <y:Shape type="roundrectangle"/>
                  <y:State closed="false" closedHeight="50.0" closedWidth="50.0" innerGraphDisplayEnabled="false"/>
                  <y:Insets bottom="15" bottomF="15.0" left="15" leftF="15.0" right="15" rightF="15.0" top="15" topF="15.0"/>
                  <y:BorderInsets bottom="0" bottomF="0.0" left="0" leftF="0.0" right="0" rightF="8.036970075409045E-5" top="0" topF="1.4210854715202004E-14"/>
                </y:GroupNode>
                <y:GroupNode>
                  <y:Geometry height="50.0" width="50.0" x="546.4813492063493" y="-16.630379746835487"/>
                  <y:Fill color="#F5F5F5" transparent="false"/>
                  <y:BorderStyle color="#000000" type="dashed" width="1.0"/>
                  <y:NodeLabel alignment="right" autoSizePolicy="node_width" backgroundColor="#EBEBEB" borderDistance="0.0" fontFamily="Dialog" fontSize="15" fontStyle="plain" hasLineColor="false" height="21.4609375" horizontalTextPosition="center" iconTextGap="4" modelName="internal" modelPosition="t" textColor="#000000" verticalTextPosition="bottom" visible="true" width="65.201171875" x="-7.6005859375" xml:space="preserve" y="0.0">Folder 7</y:NodeLabel>
                  <y:Shape type="roundrectangle"/>
                  <y:State closed="true" closedHeight="50.0" closedWidth="50.0" innerGraphDisplayEnabled="false"/>
                  <y:Insets bottom="5" bottomF="5.0" left="5" leftF="5.0" right="5" rightF="5.0" top="5" topF="5.0"/>
                  <y:BorderInsets bottom="0" bottomF="0.0" left="0" leftF="0.0" right="0" rightF="0.0" top="0" topF="0.0"/>
                </y:GroupNode>
              </y:Realizers>
            </y:ProxyAutoBoundsNode>
          </data>
          <graph edgedefault="directed" id="n0::n1:">
            <node id="n0::n1::n0">
              <data key="d4" xml:space="preserve"/>
              <data key="d6">
                <y:UMLClassNode>
                  <y:Geometry height="28.0" width="185.5506329113923" x="2206.312778782399" y="30.599999999999966"/>
                  <y:Fill color="#FFCC00" transparent="false"/>
                  <y:BorderStyle color="#000000" type="line" width="1.0"/>
                  <y:NodeLabel alignment="center" autoSizePolicy="content" fontFamily="Dialog" fontSize="13" fontStyle="bold" hasBackgroundColor="false" hasLineColor="false" height="19.1328125" horizontalTextPosition="center" iconTextGap="4" modelName="custom" textColor="#000000" verticalTextPosition="bottom" visible="true" width="176.8974609375" x="4.3265859869461565" xml:space="preserve" y="3.0">ItemContainerWithLock<y:LabelModel><y:SmartNodeLabelModel distance="4.0"/></y:LabelModel><y:ModelParameter><y:SmartNodeLabelModelParameter labelRatioX="0.0" labelRatioY="0.0" nodeRatioX="0.0" nodeRatioY="0.0" offsetX="0.0" offsetY="0.0" upX="0.0" upY="-1.0"/></y:ModelParameter></y:NodeLabel>
                  <y:UML clipContent="true" constraint="" hasDetailsColor="false" omitDetails="false" stereotype="" use3DEffect="true">
                    <y:AttributeLabel xml:space="preserve"/>
                    <y:MethodLabel xml:space="preserve"/>
                  </y:UML>
                </y:UMLClassNode>
              </data>
            </node>
            <node id="n0::n1::n1">
              <data key="d4" xml:space="preserve"/>
              <data key="d6">
                <y:UMLClassNode>
                  <y:Geometry height="49.538884493670906" width="100.0" x="2076.3126984126984" y="19.830557753164513"/>
                  <y:Fill color="#FFCC00" transparent="false"/>
                  <y:BorderStyle color="#000000" type="line" width="1.0"/>
                  <y:NodeLabel alignment="center" autoSizePolicy="content" fontFamily="Dialog" fontSize="13" fontStyle="bold" hasBackgroundColor="false" hasLineColor="false" height="19.1328125" horizontalTextPosition="center" iconTextGap="4" modelName="custom" textColor="#000000" verticalTextPosition="bottom" visible="true" width="31.36474609375" x="34.317626953125" xml:space="preserve" y="3.0">Key<y:LabelModel><y:SmartNodeLabelModel distance="4.0"/></y:LabelModel><y:ModelParameter><y:SmartNodeLabelModelParameter labelRatioX="0.0" labelRatioY="0.0" nodeRatioX="0.0" nodeRatioY="0.0" offsetX="0.0" offsetY="0.0" upX="0.0" upY="-1.0"/></y:ModelParameter></y:NodeLabel>
                  <y:UML clipContent="true" constraint="" hasDetailsColor="false" omitDetails="false" stereotype="" use3DEffect="true">
                    <y:AttributeLabel xml:space="preserve">+id</y:AttributeLabel>
                    <y:MethodLabel xml:space="preserve"/>
                  </y:UML>
                </y:UMLClassNode>
              </data>
            </node>
            <node id="n0::n1::n2">
              <data key="d4" xml:space="preserve"/>
              <data key="d6">
                <y:UMLClassNode>
                  <y:Geometry height="49.538884493670935" width="145.8497890295357" x="2143.3132007233276" y="263.09149525316445"/>
                  <y:Fill color="#FFCC00" transparent="false"/>
                  <y:BorderStyle color="#000000" type="line" width="1.0"/>
                  <y:NodeLabel alignment="center" autoSizePolicy="content" fontFamily="Dialog" fontSize="13" fontStyle="bold" hasBackgroundColor="false" hasLineColor="false" height="19.1328125" horizontalTextPosition="center" iconTextGap="4" modelName="custom" textColor="#000000" verticalTextPosition="bottom" visible="true" width="109.06640625" x="18.391691389767857" xml:space="preserve" y="3.0">ItemContainer<y:LabelModel><y:SmartNodeLabelModel distance="4.0"/></y:LabelModel><y:ModelParameter><y:SmartNodeLabelModelParameter labelRatioX="0.0" labelRatioY="0.0" nodeRatioX="0.0" nodeRatioY="0.0" offsetX="0.0" offsetY="0.0" upX="0.0" upY="-1.0"/></y:ModelParameter></y:NodeLabel>
                  <y:UML clipContent="true" constraint="" hasDetailsColor="false" omitDetails="false" stereotype="" use3DEffect="true">
                    <y:AttributeLabel xml:space="preserve">+container: Container</y:AttributeLabel>
                    <y:MethodLabel xml:space="preserve"/>
                  </y:UML>
                </y:UMLClassNode>
              </data>
            </node>
          </graph>
        </node>
        <node id="n0::n2">
          <data key="d4" xml:space="preserve"/>
          <data key="d6">
            <y:UMLClassNode>
              <y:Geometry height="89.19999999999993" width="139.0" x="2436.8634920634922" y="243.2609374999999"/>
              <y:Fill color="#FFCC00" transparent="false"/>
              <y:BorderStyle color="#000000" type="line" width="1.0"/>
              <y:NodeLabel alignment="center" autoSizePolicy="content" fontFamily="Dialog" fontSize="13" fontStyle="bold" hasBackgroundColor="false" hasLineColor="false" height="19.1328125" horizontalTextPosition="center" iconTextGap="4" modelName="custom" textColor="#000000" verticalTextPosition="bottom" visible="true" width="37.56640625" x="50.716796875" xml:space="preserve" y="35.033593749999966">Lock<y:LabelModel><y:SmartNodeLabelModel distance="4.0"/></y:LabelModel><y:ModelParameter><y:SmartNodeLabelModelParameter labelRatioX="0.0" labelRatioY="0.0" nodeRatioX="0.0" nodeRatioY="0.0" offsetX="0.0" offsetY="0.0" upX="0.0" upY="-1.0"/></y:ModelParameter></y:NodeLabel>
              <y:UML clipContent="true" constraint="" hasDetailsColor="false" omitDetails="false" stereotype="" use3DEffect="true">
                <y:AttributeLabel xml:space="preserve">-keyId: String (Key.id)</y:AttributeLabel>
                <y:MethodLabel xml:space="preserve">+unlock(key)
+lock()
</y:MethodLabel>
              </y:UML>
            </y:UMLClassNode>
          </data>
        </node>
      </graph>
    </node>
    <node id="n1" yfiles.foldertype="group">
      <data key="d4" xml:space="preserve"/>
      <data key="d6">
        <y:ProxyAutoBoundsNode>
          <y:Realizers active="0">
            <y:GroupNode>
              <y:Geometry height="853.2524624612321" width="389.0" x="2620.8634920634922" y="163.73906249999993"/>
              <y:Fill color="#F5F5F500" transparent="false"/>
              <y:BorderStyle color="#000000" type="dashed" width="1.0"/>
              <y:NodeLabel alignment="right" autoSizePolicy="node_width" backgroundColor="#EBEBEB33" borderDistance="0.0" fontFamily="Dialog" fontSize="15" fontStyle="plain" hasLineColor="false" height="21.4609375" horizontalTextPosition="center" iconTextGap="4" modelName="internal" modelPosition="t" textColor="#000000" verticalTextPosition="bottom" visible="true" width="389.0" x="0.0" xml:space="preserve" y="0.0">Core Binaries</y:NodeLabel>
              <y:Shape type="roundrectangle"/>
              <y:State closed="false" closedHeight="50.0" closedWidth="50.0" innerGraphDisplayEnabled="false"/>
              <y:Insets bottom="15" bottomF="15.0" left="15" leftF="15.0" right="15" rightF="15.0" top="15" topF="15.0"/>
              <y:BorderInsets bottom="0" bottomF="0.0" left="0" leftF="0.0" right="0" rightF="0.0" top="0" topF="0.0"/>
            </y:GroupNode>
            <y:GroupNode>
              <y:Geometry height="50.0" width="50.0" x="0.0" y="60.0"/>
              <y:Fill color="#F5F5F5" transparent="false"/>
              <y:BorderStyle color="#000000" type="dashed" width="1.0"/>
              <y:NodeLabel alignment="right" autoSizePolicy="node_width" backgroundColor="#EBEBEB" borderDistance="0.0" fontFamily="Dialog" fontSize="15" fontStyle="plain" hasLineColor="false" height="21.4609375" horizontalTextPosition="center" iconTextGap="4" modelName="internal" modelPosition="t" textColor="#000000" verticalTextPosition="bottom" visible="true" width="65.201171875" x="-7.6005859375" xml:space="preserve" y="0.0">Folder 9</y:NodeLabel>
              <y:Shape type="roundrectangle"/>
              <y:State closed="true" closedHeight="50.0" closedWidth="50.0" innerGraphDisplayEnabled="false"/>
              <y:Insets bottom="5" bottomF="5.0" left="5" leftF="5.0" right="5" rightF="5.0" top="5" topF="5.0"/>
              <y:BorderInsets bottom="0" bottomF="0.0" left="0" leftF="0.0" right="0" rightF="0.0" top="0" topF="0.0"/>
            </y:GroupNode>
          </y:Realizers>
        </y:ProxyAutoBoundsNode>
      </data>
      <graph edgedefault="directed" id="n1:">
        <node id="n1::n0" yfiles.foldertype="group">
          <data key="d4" xml:space="preserve"/>
          <data key="d6">
            <y:ProxyAutoBoundsNode>
              <y:Realizers active="0">
                <y:GroupNode>
                  <y:Geometry height="126.66093750000005" width="318.0" x="2635.8634920634922" y="875.330587461232"/>
                  <y:Fill color="#F5F5F500" transparent="false"/>
                  <y:BorderStyle color="#000000" type="dashed" width="1.0"/>
                  <y:NodeLabel alignment="right" autoSizePolicy="node_width" backgroundColor="#EBEBEB33" borderDistance="0.0" fontFamily="Dialog" fontSize="15" fontStyle="plain" hasLineColor="false" height="21.4609375" horizontalTextPosition="center" iconTextGap="4" modelName="internal" modelPosition="t" textColor="#000000" verticalTextPosition="bottom" visible="true" width="318.0" x="0.0" xml:space="preserve" y="0.0">Output</y:NodeLabel>
                  <y:Shape type="roundrectangle"/>
                  <y:State closed="false" closedHeight="50.0" closedWidth="50.0" innerGraphDisplayEnabled="false"/>
                  <y:Insets bottom="15" bottomF="15.0" left="15" leftF="15.0" right="15" rightF="15.0" top="15" topF="15.0"/>
                  <y:BorderInsets bottom="0" bottomF="0.0" left="0" leftF="0.0" right="0" rightF="0.0" top="0" topF="0.0"/>
                </y:GroupNode>
                <y:GroupNode>
                  <y:Geometry height="50.0" width="50.0" x="1357.4734126984126" y="542.1609374999996"/>
                  <y:Fill color="#F5F5F5" transparent="false"/>
                  <y:BorderStyle color="#000000" type="dashed" width="1.0"/>
                  <y:NodeLabel alignment="right" autoSizePolicy="node_width" backgroundColor="#EBEBEB" borderDistance="0.0" fontFamily="Dialog" fontSize="15" fontStyle="plain" hasLineColor="false" height="21.4609375" horizontalTextPosition="center" iconTextGap="4" modelName="internal" modelPosition="t" textColor="#000000" verticalTextPosition="bottom" visible="true" width="65.201171875" x="-7.6005859375" xml:space="preserve" y="0.0">Folder 4</y:NodeLabel>
                  <y:Shape type="roundrectangle"/>
                  <y:State closed="true" closedHeight="50.0" closedWidth="50.0" innerGraphDisplayEnabled="false"/>
                  <y:Insets bottom="5" bottomF="5.0" left="5" leftF="5.0" right="5" rightF="5.0" top="5" topF="5.0"/>
                  <y:BorderInsets bottom="0" bottomF="0.0" left="0" leftF="0.0" right="0" rightF="0.0" top="0" topF="0.0"/>
                </y:GroupNode>
              </y:Realizers>
            </y:ProxyAutoBoundsNode>
          </data>
          <graph edgedefault="directed" id="n1::n0:">
            <node id="n1::n0::n0">
              <data key="d4" xml:space="preserve"/>
              <data key="d6">
                <y:UMLClassNode>
                  <y:Geometry height="62.40000000000009" width="119.0" x="2819.8634920634922" y="918.191524961232"/>
                  <y:Fill color="#99CCFF" transparent="false"/>
                  <y:BorderStyle color="#000000" type="line" width="1.0"/>
                  <y:NodeLabel alignment="center" autoSizePolicy="content" fontFamily="Dialog" fontSize="13" fontStyle="bold" hasBackgroundColor="false" hasLineColor="false" height="19.1328125" horizontalTextPosition="center" iconTextGap="4" modelName="custom" textColor="#000000" verticalTextPosition="bottom" visible="true" width="105.26416015625" x="6.867919921875" xml:space="preserve" y="21.633593750000045">OutputEngine<y:LabelModel><y:SmartNodeLabelModel distance="4.0"/></y:LabelModel><y:ModelParameter><y:SmartNodeLabelModelParameter labelRatioX="0.0" labelRatioY="0.0" nodeRatioX="0.0" nodeRatioY="0.0" offsetX="0.0" offsetY="0.0" upX="0.0" upY="-1.0"/></y:ModelParameter></y:NodeLabel>
                  <y:UML clipContent="true" constraint="" hasDetailsColor="false" omitDetails="false" stereotype="" use3DEffect="true">
                    <y:AttributeLabel xml:space="preserve"/>
                    <y:MethodLabel xml:space="preserve">-render()</y:MethodLabel>
                  </y:UML>
                </y:UMLClassNode>
              </data>
            </node>
            <node id="n1::n0::n1">
              <data key="d4" xml:space="preserve"/>
              <data key="d6">
                <y:UMLClassNode>
                  <y:Geometry height="75.20000000000005" width="139.0" x="2650.8634920634922" y="911.791524961232"/>
                  <y:Fill color="#99CCFF" transparent="false"/>
                  <y:BorderStyle color="#000000" type="line" width="1.0"/>
                  <y:NodeLabel alignment="center" autoSizePolicy="content" fontFamily="Dialog" fontSize="13" fontStyle="bold" hasBackgroundColor="false" hasLineColor="false" height="19.1328125" horizontalTextPosition="center" iconTextGap="4" modelName="custom" textColor="#000000" verticalTextPosition="bottom" visible="true" width="126.32568359375" x="6.337158203125" xml:space="preserve" y="28.033593750000023">KwentoObserver<y:LabelModel><y:SmartNodeLabelModel distance="4.0"/></y:LabelModel><y:ModelParameter><y:SmartNodeLabelModelParameter labelRatioX="0.0" labelRatioY="0.0" nodeRatioX="0.0" nodeRatioY="0.0" offsetX="0.0" offsetY="0.0" upX="0.0" upY="-1.0"/></y:ModelParameter></y:NodeLabel>
                  <y:UML clipContent="true" constraint="" hasDetailsColor="false" omitDetails="false" stereotype="" use3DEffect="true">
                    <y:AttributeLabel xml:space="preserve"/>
                    <y:MethodLabel xml:space="preserve">update()</y:MethodLabel>
                  </y:UML>
                </y:UMLClassNode>
              </data>
            </node>
          </graph>
        </node>
        <node id="n1::n1">
          <data key="d4" xml:space="preserve"/>
          <data key="d6">
            <y:UMLClassNode>
              <y:Geometry height="75.19999999999999" width="120.0" x="2635.8634920634922" y="686.5977749612318"/>
              <y:Fill color="#CC99FF" transparent="false"/>
              <y:BorderStyle color="#000000" type="line" width="1.0"/>
              <y:NodeLabel alignment="center" autoSizePolicy="content" fontFamily="Dialog" fontSize="13" fontStyle="bold" hasBackgroundColor="false" hasLineColor="false" height="19.1328125" horizontalTextPosition="center" iconTextGap="4" modelName="custom" textColor="#000000" verticalTextPosition="bottom" visible="true" width="69.46337890625" x="25.268310546875" xml:space="preserve" y="28.033593750000023">Compiler<y:LabelModel><y:SmartNodeLabelModel distance="4.0"/></y:LabelModel><y:ModelParameter><y:SmartNodeLabelModelParameter labelRatioX="0.0" labelRatioY="0.0" nodeRatioX="0.0" nodeRatioY="0.0" offsetX="0.0" offsetY="0.0" upX="0.0" upY="-1.0"/></y:ModelParameter></y:NodeLabel>
              <y:UML clipContent="true" constraint="" hasDetailsColor="false" omitDetails="false" stereotype="" use3DEffect="true">
                <y:AttributeLabel xml:space="preserve"/>
                <y:MethodLabel xml:space="preserve">+compile(kwento)
+decompile()</y:MethodLabel>
              </y:UML>
            </y:UMLClassNode>
          </data>
        </node>
        <node id="n1::n2" yfiles.foldertype="group">
          <data key="d4" xml:space="preserve"/>
          <data key="d6">
            <y:ProxyAutoBoundsNode>
              <y:Realizers active="0">
                <y:GroupNode>
                  <y:Geometry height="570.197774961232" width="209.0" x="2785.8634920634922" y="200.19999999999993"/>
                  <y:Fill color="#F5F5F500" transparent="false"/>
                  <y:BorderStyle color="#000000" type="dashed" width="1.0"/>
                  <y:NodeLabel alignment="right" autoSizePolicy="node_width" backgroundColor="#EBEBEB33" borderDistance="0.0" fontFamily="Dialog" fontSize="15" fontStyle="plain" hasLineColor="false" height="21.4609375" horizontalTextPosition="center" iconTextGap="4" modelName="internal" modelPosition="t" textColor="#000000" verticalTextPosition="bottom" visible="true" width="209.0" x="0.0" xml:space="preserve" y="0.0">Input</y:NodeLabel>
                  <y:Shape type="roundrectangle"/>
                  <y:State closed="false" closedHeight="50.0" closedWidth="50.0" innerGraphDisplayEnabled="false"/>
                  <y:Insets bottom="15" bottomF="15.0" left="15" leftF="15.0" right="15" rightF="15.0" top="15" topF="15.0"/>
                  <y:BorderInsets bottom="0" bottomF="0.0" left="0" leftF="0.0" right="0" rightF="0.0" top="0" topF="0.0"/>
                </y:GroupNode>
                <y:GroupNode>
                  <y:Geometry height="50.0" width="50.0" x="0.0" y="60.0"/>
                  <y:Fill color="#F5F5F5" transparent="false"/>
                  <y:BorderStyle color="#000000" type="dashed" width="1.0"/>
                  <y:NodeLabel alignment="right" autoSizePolicy="node_width" backgroundColor="#EBEBEB" borderDistance="0.0" fontFamily="Dialog" fontSize="15" fontStyle="plain" hasLineColor="false" height="21.4609375" horizontalTextPosition="center" iconTextGap="4" modelName="internal" modelPosition="t" textColor="#000000" verticalTextPosition="bottom" visible="true" width="65.201171875" x="-7.6005859375" xml:space="preserve" y="0.0">Folder 6</y:NodeLabel>
                  <y:Shape type="roundrectangle"/>
                  <y:State closed="true" closedHeight="50.0" closedWidth="50.0" innerGraphDisplayEnabled="false"/>
                  <y:Insets bottom="5" bottomF="5.0" left="5" leftF="5.0" right="5" rightF="5.0" top="5" topF="5.0"/>
                  <y:BorderInsets bottom="0" bottomF="0.0" left="0" leftF="0.0" right="0" rightF="0.0" top="0" topF="0.0"/>
                </y:GroupNode>
              </y:Realizers>
            </y:ProxyAutoBoundsNode>
          </data>
          <graph edgedefault="directed" id="n1::n2:">
            <node id="n1::n2::n0">
              <data key="d4" xml:space="preserve"/>
              <data key="d6">
                <y:UMLClassNode>
                  <y:Geometry height="102.39999999999986" width="153.1034482758621" x="2800.863752052545" y="236.66093749999993"/>
                  <y:Fill color="#FF99CC" transparent="false"/>
                  <y:BorderStyle color="#000000" type="line" width="1.0"/>
                  <y:NodeLabel alignment="center" autoSizePolicy="content" fontFamily="Dialog" fontSize="13" fontStyle="bold" hasBackgroundColor="false" hasLineColor="false" height="19.1328125" horizontalTextPosition="center" iconTextGap="4" modelName="custom" textColor="#000000" verticalTextPosition="bottom" visible="true" width="54.4638671875" x="49.31979054418116" xml:space="preserve" y="41.63359374999993">Syntax<y:LabelModel><y:SmartNodeLabelModel distance="4.0"/></y:LabelModel><y:ModelParameter><y:SmartNodeLabelModelParameter labelRatioX="0.0" labelRatioY="0.0" nodeRatioX="0.0" nodeRatioY="0.0" offsetX="0.0" offsetY="0.0" upX="0.0" upY="-1.0"/></y:ModelParameter></y:NodeLabel>
                  <y:UML clipContent="true" constraint="" hasDetailsColor="false" omitDetails="false" stereotype="" use3DEffect="true">
                    <y:AttributeLabel xml:space="preserve">-definition: SomeParser</y:AttributeLabel>
                    <y:MethodLabel xml:space="preserve">interpret(input)</y:MethodLabel>
                  </y:UML>
                </y:UMLClassNode>
              </data>
            </node>
            <node id="n1::n2::n1">
              <data key="d4" xml:space="preserve"/>
              <data key="d6">
                <y:UMLClassNode>
                  <y:Geometry height="62.40000000000009" width="132.58620689655163" x="2847.277134646962" y="692.9977749612318"/>
                  <y:Fill color="#FF99CC" transparent="false"/>
                  <y:BorderStyle color="#000000" type="line" width="1.0"/>
                  <y:NodeLabel alignment="center" autoSizePolicy="content" fontFamily="Dialog" fontSize="13" fontStyle="bold" hasBackgroundColor="false" hasLineColor="false" height="19.1328125" horizontalTextPosition="center" iconTextGap="4" modelName="custom" textColor="#000000" verticalTextPosition="bottom" visible="true" width="92.83544921875" x="19.875378838900815" xml:space="preserve" y="21.633593750000045">InputEngine<y:LabelModel><y:SmartNodeLabelModel distance="4.0"/></y:LabelModel><y:ModelParameter><y:SmartNodeLabelModelParameter labelRatioX="0.0" labelRatioY="0.0" nodeRatioX="0.0" nodeRatioY="0.0" offsetX="0.0" offsetY="0.0" upX="0.0" upY="-1.0"/></y:ModelParameter></y:NodeLabel>
                  <y:UML clipContent="true" constraint="" hasDetailsColor="false" omitDetails="false" stereotype="" use3DEffect="true">
                    <y:AttributeLabel xml:space="preserve"/>
                    <y:MethodLabel xml:space="preserve">+read_command()</y:MethodLabel>
                  </y:UML>
                </y:UMLClassNode>
              </data>
            </node>
            <node id="n1::n2::n2">
              <data key="d4" xml:space="preserve"/>
              <data key="d6">
                <y:UMLClassNode>
                  <y:Geometry height="90.39999999999986" width="179.0" x="2800.8634920634922" y="454.1218749999999"/>
                  <y:Fill color="#FF99CC" transparent="false"/>
                  <y:BorderStyle color="#000000" type="line" width="1.0"/>
                  <y:NodeLabel alignment="center" autoSizePolicy="content" fontFamily="Dialog" fontSize="13" fontStyle="bold" hasBackgroundColor="false" hasLineColor="false" height="19.1328125" horizontalTextPosition="center" iconTextGap="4" modelName="custom" textColor="#000000" verticalTextPosition="bottom" visible="true" width="85.51025390625" x="46.744873046875" xml:space="preserve" y="35.63359374999993">Interpreter<y:LabelModel><y:SmartNodeLabelModel distance="4.0"/></y:LabelModel><y:ModelParameter><y:SmartNodeLabelModelParameter labelRatioX="0.0" labelRatioY="0.0" nodeRatioX="0.0" nodeRatioY="0.0" offsetX="0.0" offsetY="0.0" upX="0.0" upY="-1.0"/></y:ModelParameter></y:NodeLabel>
                  <y:UML clipContent="true" constraint="" hasDetailsColor="false" omitDetails="false" stereotype="" use3DEffect="true">
                    <y:AttributeLabel xml:space="preserve">-syntaxes: Syntax
-input_engine: InputEngine</y:AttributeLabel>
                    <y:MethodLabel xml:space="preserve">+interpret(input)</y:MethodLabel>
                  </y:UML>
                </y:UMLClassNode>
              </data>
            </node>
          </graph>
        </node>
      </graph>
    </node>
    <node id="n2" yfiles.foldertype="group">
      <data key="d4" xml:space="preserve"/>
      <data key="d6">
        <y:ProxyAutoBoundsNode>
          <y:Realizers active="0">
            <y:GroupNode>
              <y:Geometry height="1083.5133999612322" width="1466.3126984126984" x="0.0" y="-72.921875"/>
              <y:Fill color="#F5F5F500" transparent="false"/>
              <y:BorderStyle color="#000000" type="dashed" width="1.0"/>
              <y:NodeLabel alignment="right" autoSizePolicy="node_width" backgroundColor="#EBEBEB33" borderDistance="0.0" fontFamily="Dialog" fontSize="15" fontStyle="plain" hasLineColor="false" height="21.4609375" horizontalTextPosition="center" iconTextGap="4" modelName="internal" modelPosition="t" textColor="#000000" verticalTextPosition="bottom" visible="true" width="1466.3126984126984" x="0.0" xml:space="preserve" y="0.0">Core Libraries</y:NodeLabel>
              <y:Shape type="roundrectangle"/>
              <y:State closed="false" closedHeight="50.0" closedWidth="50.0" innerGraphDisplayEnabled="false"/>
              <y:Insets bottom="15" bottomF="15.0" left="15" leftF="15.0" right="15" rightF="15.0" top="15" topF="15.0"/>
              <y:BorderInsets bottom="0" bottomF="0.0" left="0" leftF="2.5998905307744735E-4" right="0" rightF="0.0" top="0" topF="0.0"/>
            </y:GroupNode>
            <y:GroupNode>
              <y:Geometry height="50.0" width="50.0" x="0.0" y="60.0"/>
              <y:Fill color="#F5F5F5" transparent="false"/>
              <y:BorderStyle color="#000000" type="dashed" width="1.0"/>
              <y:NodeLabel alignment="right" autoSizePolicy="node_width" backgroundColor="#EBEBEB" borderDistance="0.0" fontFamily="Dialog" fontSize="15" fontStyle="plain" hasLineColor="false" height="21.4609375" horizontalTextPosition="center" iconTextGap="4" modelName="internal" modelPosition="t" textColor="#000000" verticalTextPosition="bottom" visible="true" width="74.74462890625" x="-12.372314453125" xml:space="preserve" y="0.0">Folder 10</y:NodeLabel>
              <y:Shape type="roundrectangle"/>
              <y:State closed="true" closedHeight="50.0" closedWidth="50.0" innerGraphDisplayEnabled="false"/>
              <y:Insets bottom="5" bottomF="5.0" left="5" leftF="5.0" right="5" rightF="5.0" top="5" topF="5.0"/>
              <y:BorderInsets bottom="0" bottomF="0.0" left="0" leftF="0.0" right="0" rightF="0.0" top="0" topF="0.0"/>
            </y:GroupNode>
          </y:Realizers>
        </y:ProxyAutoBoundsNode>
      </data>
      <graph edgedefault="directed" id="n2:">
        <node id="n2::n0" yfiles.foldertype="group">
          <data key="d4" xml:space="preserve"/>
          <data key="d6">
            <y:ProxyAutoBoundsNode>
              <y:Realizers active="0">
                <y:GroupNode>
                  <y:Geometry height="581.9828124999999" width="281.14047619047625" x="198.10396825396822" y="-36.4609375"/>
                  <y:Fill color="#F5F5F500" transparent="false"/>
                  <y:BorderStyle color="#000000" type="dashed" width="1.0"/>
                  <y:NodeLabel alignment="right" autoSizePolicy="node_width" backgroundColor="#EBEBEB33" borderDistance="0.0" fontFamily="Dialog" fontSize="15" fontStyle="plain" hasLineColor="false" height="21.4609375" horizontalTextPosition="center" iconTextGap="4" modelName="internal" modelPosition="t" textColor="#000000" verticalTextPosition="bottom" visible="true" width="281.14047619047625" x="0.0" xml:space="preserve" y="0.0">Helper Class</y:NodeLabel>
                  <y:Shape type="roundrectangle"/>
                  <y:State closed="false" closedHeight="50.0" closedWidth="50.0" innerGraphDisplayEnabled="false"/>
                  <y:Insets bottom="15" bottomF="15.0" left="15" leftF="15.0" right="15" rightF="15.0" top="15" topF="15.0"/>
                  <y:BorderInsets bottom="0" bottomF="0.0" left="0" leftF="2.712477402155855E-5" right="0" rightF="0.0" top="0" topF="0.0"/>
                </y:GroupNode>
                <y:GroupNode>
                  <y:Geometry height="50.0" width="50.0" x="20.0" y="0.0"/>
                  <y:Fill color="#F5F5F5" transparent="false"/>
                  <y:BorderStyle color="#000000" type="dashed" width="1.0"/>
                  <y:NodeLabel alignment="right" autoSizePolicy="node_width" backgroundColor="#EBEBEB" borderDistance="0.0" fontFamily="Dialog" fontSize="15" fontStyle="plain" hasLineColor="false" height="21.4609375" horizontalTextPosition="center" iconTextGap="4" modelName="internal" modelPosition="t" textColor="#000000" verticalTextPosition="bottom" visible="true" width="65.201171875" x="-7.6005859375" xml:space="preserve" y="0.0">Folder 3</y:NodeLabel>
                  <y:Shape type="roundrectangle"/>
                  <y:State closed="true" closedHeight="50.0" closedWidth="50.0" innerGraphDisplayEnabled="false"/>
                  <y:Insets bottom="5" bottomF="5.0" left="5" leftF="5.0" right="5" rightF="5.0" top="5" topF="5.0"/>
                  <y:BorderInsets bottom="0" bottomF="0.0" left="0" leftF="0.0" right="0" rightF="0.0" top="0" topF="0.0"/>
                </y:GroupNode>
              </y:Realizers>
            </y:ProxyAutoBoundsNode>
          </data>
          <graph edgedefault="directed" id="n2::n0:">
            <node id="n2::n0::n0">
              <data key="d4" xml:space="preserve"/>
              <data key="d6">
                <y:UMLClassNode>
                  <y:Geometry height="62.40000000000009" width="100.0" x="364.24444444444447" y="468.12187499999976"/>
                  <y:Fill color="#FFCC99" transparent="false"/>
                  <y:BorderStyle color="#000000" type="line" width="1.0"/>
                  <y:NodeLabel alignment="center" autoSizePolicy="content" fontFamily="Dialog" fontSize="13" fontStyle="bold" hasBackgroundColor="false" hasLineColor="false" height="19.1328125" horizontalTextPosition="center" iconTextGap="4" modelName="custom" textColor="#000000" verticalTextPosition="bottom" visible="true" width="80.78125" x="9.609375" xml:space="preserve" y="3.0">Descriptor<y:LabelModel><y:SmartNodeLabelModel distance="4.0"/></y:LabelModel><y:ModelParameter><y:SmartNodeLabelModelParameter labelRatioX="0.0" labelRatioY="0.0" nodeRatioX="0.0" nodeRatioY="0.0" offsetX="0.0" offsetY="0.0" upX="0.0" upY="-1.0"/></y:ModelParameter></y:NodeLabel>
                  <y:UML clipContent="true" constraint="" hasDetailsColor="false" omitDetails="false" stereotype="" use3DEffect="true">
                    <y:AttributeLabel xml:space="preserve">+name: String
+data: T</y:AttributeLabel>
                    <y:MethodLabel xml:space="preserve"/>
                  </y:UML>
                </y:UMLClassNode>
              </data>
            </node>
            <node id="n2::n0::n1">
              <data key="d4" xml:space="preserve"/>
              <data key="d6">
                <y:UMLClassNode>
                  <y:Geometry height="89.19999999999993" width="251.14042194092826" x="213.10399537874224" y="0.0"/>
                  <y:Fill color="#FFCC99" transparent="false"/>
                  <y:BorderStyle color="#000000" type="line" width="1.0"/>
                  <y:NodeLabel alignment="center" autoSizePolicy="content" fontFamily="Dialog" fontSize="13" fontStyle="bold" hasBackgroundColor="false" hasLineColor="false" height="19.1328125" horizontalTextPosition="center" iconTextGap="4" modelName="custom" textColor="#000000" verticalTextPosition="bottom" visible="true" width="75.65234375" x="87.74403909546413" xml:space="preserve" y="3.0">Container<y:LabelModel><y:SmartNodeLabelModel distance="4.0"/></y:LabelModel><y:ModelParameter><y:SmartNodeLabelModelParameter labelRatioX="0.0" labelRatioY="0.0" nodeRatioX="0.0" nodeRatioY="0.0" offsetX="0.0" offsetY="0.0" upX="0.0" upY="-1.0"/></y:ModelParameter></y:NodeLabel>
                  <y:UML clipContent="true" constraint="" hasDetailsColor="false" omitDetails="false" stereotype="" use3DEffect="true">
                    <y:AttributeLabel xml:space="preserve">+items: HashMap&lt;String, Item&gt;</y:AttributeLabel>
                    <y:MethodLabel xml:space="preserve">+receive()
+transfer(itemName, newContainer)</y:MethodLabel>
                  </y:UML>
                </y:UMLClassNode>
              </data>
            </node>
          </graph>
        </node>
        <node id="n2::n1" yfiles.foldertype="group">
          <data key="d4" xml:space="preserve"/>
          <data key="d6">
            <y:ProxyAutoBoundsNode>
              <y:Realizers active="0">
                <y:GroupNode>
                  <y:Geometry height="593.5305874612322" width="557.2658730158729" x="509.2444444444444" y="402.06093749999985"/>
                  <y:Fill color="#F5F5F500" transparent="false"/>
                  <y:BorderStyle color="#000000" type="dashed" width="1.0"/>
                  <y:NodeLabel alignment="right" autoSizePolicy="node_width" backgroundColor="#EBEBEB33" borderDistance="0.0" fontFamily="Dialog" fontSize="15" fontStyle="plain" hasLineColor="false" height="21.4609375" horizontalTextPosition="center" iconTextGap="4" modelName="internal" modelPosition="t" textColor="#000000" verticalTextPosition="bottom" visible="true" width="557.2658730158729" x="0.0" xml:space="preserve" y="0.0">Entities</y:NodeLabel>
                  <y:Shape type="roundrectangle"/>
                  <y:State closed="false" closedHeight="50.0" closedWidth="50.0" innerGraphDisplayEnabled="false"/>
                  <y:Insets bottom="15" bottomF="15.0" left="15" leftF="15.0" right="15" rightF="15.0" top="15" topF="15.0"/>
                  <y:BorderInsets bottom="0" bottomF="0.0" left="0" leftF="2.5115531457231555E-5" right="0" rightF="0.0" top="0" topF="0.0"/>
                </y:GroupNode>
                <y:GroupNode>
                  <y:Geometry height="50.0" width="50.0" x="32.5" y="81.0"/>
                  <y:Fill color="#F5F5F5" transparent="false"/>
                  <y:BorderStyle color="#000000" type="dashed" width="1.0"/>
                  <y:NodeLabel alignment="right" autoSizePolicy="node_width" backgroundColor="#EBEBEB" borderDistance="0.0" fontFamily="Dialog" fontSize="15" fontStyle="plain" hasLineColor="false" height="21.4609375" horizontalTextPosition="center" iconTextGap="4" modelName="internal" modelPosition="t" textColor="#000000" verticalTextPosition="bottom" visible="true" width="65.201171875" x="-7.6005859375" xml:space="preserve" y="0.0">Folder 2</y:NodeLabel>
                  <y:Shape type="roundrectangle"/>
                  <y:State closed="true" closedHeight="50.0" closedWidth="50.0" innerGraphDisplayEnabled="false"/>
                  <y:Insets bottom="5" bottomF="5.0" left="5" leftF="5.0" right="5" rightF="5.0" top="5" topF="5.0"/>
                  <y:BorderInsets bottom="0" bottomF="0.0" left="0" leftF="0.0" right="0" rightF="0.0" top="0" topF="0.0"/>
                </y:GroupNode>
              </y:Realizers>
            </y:ProxyAutoBoundsNode>
          </data>
          <graph edgedefault="directed" id="n2::n1:">
            <node id="n2::n1::n0">
              <data key="d4" xml:space="preserve"/>
              <data key="d6">
                <y:UMLClassNode>
                  <y:Geometry height="62.39999999999998" width="209.0" x="752.8019841269842" y="692.9977749612319"/>
                  <y:Fill color="#FF9900" transparent="false"/>
                  <y:BorderStyle color="#000000" type="line" width="1.0"/>
                  <y:NodeLabel alignment="center" autoSizePolicy="content" fontFamily="Dialog" fontSize="13" fontStyle="bold" hasBackgroundColor="false" hasLineColor="false" height="19.1328125" horizontalTextPosition="center" iconTextGap="4" modelName="custom" textColor="#000000" verticalTextPosition="bottom" visible="true" width="67.2353515625" x="70.88232421875" xml:space="preserve" y="3.0">Tangible<y:LabelModel><y:SmartNodeLabelModel distance="4.0"/></y:LabelModel><y:ModelParameter><y:SmartNodeLabelModelParameter labelRatioX="0.0" labelRatioY="0.0" nodeRatioX="0.0" nodeRatioY="0.0" offsetX="0.0" offsetY="0.0" upX="0.0" upY="-1.0"/></y:ModelParameter></y:NodeLabel>
                  <y:UML clipContent="true" constraint="" hasDetailsColor="false" omitDetails="false" stereotype="" use3DEffect="true">
                    <y:AttributeLabel xml:space="preserve">+current_location: String
+descriptors: Vec&lt;Descriptor&gt;</y:AttributeLabel>
                    <y:MethodLabel xml:space="preserve"/>
                  </y:UML>
                </y:UMLClassNode>
              </data>
            </node>
            <node id="n2::n1::n1">
              <data key="d4" xml:space="preserve"/>
              <data key="d6">
                <y:UMLClassNode>
                  <y:Geometry height="62.39999999999998" width="139.0" x="873.0519841269842" y="918.1915249612321"/>
                  <y:Fill color="#FF9900" transparent="false"/>
                  <y:BorderStyle color="#000000" type="line" width="1.0"/>
                  <y:NodeLabel alignment="center" autoSizePolicy="content" fontFamily="Dialog" fontSize="13" fontStyle="bold" hasBackgroundColor="false" hasLineColor="false" height="19.1328125" horizontalTextPosition="center" iconTextGap="4" modelName="custom" textColor="#000000" verticalTextPosition="bottom" visible="true" width="47.494140625" x="45.7529296875" xml:space="preserve" y="3.0">Entity<y:LabelModel><y:SmartNodeLabelModel distance="4.0"/></y:LabelModel><y:ModelParameter><y:SmartNodeLabelModelParameter labelRatioX="0.0" labelRatioY="0.0" nodeRatioX="0.0" nodeRatioY="0.0" offsetX="0.0" offsetY="0.0" upX="0.0" upY="-1.0"/></y:ModelParameter></y:NodeLabel>
                  <y:UML clipContent="true" constraint="" hasDetailsColor="false" omitDetails="false" stereotype="" use3DEffect="true">
                    <y:AttributeLabel xml:space="preserve">+name: String
+description: String</y:AttributeLabel>
                    <y:MethodLabel xml:space="preserve"/>
                  </y:UML>
                </y:UMLClassNode>
              </data>
            </node>
            <node id="n2::n1::n2">
              <data key="d4" xml:space="preserve"/>
              <data key="d6">
                <y:UMLClassNode>
                  <y:Geometry height="106.39999999999992" width="139.0" x="912.5103174603174" y="446.1218749999998"/>
                  <y:Fill color="#FF9900" transparent="false"/>
                  <y:BorderStyle color="#000000" type="line" width="1.0"/>
                  <y:NodeLabel alignment="center" autoSizePolicy="content" fontFamily="Dialog" fontSize="13" fontStyle="bold" hasBackgroundColor="false" hasLineColor="false" height="19.1328125" horizontalTextPosition="center" iconTextGap="4" modelName="custom" textColor="#000000" verticalTextPosition="bottom" visible="true" width="66.5498046875" x="36.22509765625" xml:space="preserve" y="3.0">Location<y:LabelModel><y:SmartNodeLabelModel distance="4.0"/></y:LabelModel><y:ModelParameter><y:SmartNodeLabelModelParameter labelRatioX="0.0" labelRatioY="0.0" nodeRatioX="0.0" nodeRatioY="0.0" offsetX="0.0" offsetY="0.0" upX="0.0" upY="-1.0"/></y:ModelParameter></y:NodeLabel>
                  <y:UML clipContent="true" constraint="" hasDetailsColor="false" omitDetails="false" stereotype="" use3DEffect="true">
                    <y:AttributeLabel xml:space="preserve">+exits: Vec&lt;String&gt;</y:AttributeLabel>
                    <y:MethodLabel xml:space="preserve"/>
                  </y:UML>
                </y:UMLClassNode>
              </data>
            </node>
            <node id="n2::n1::n3">
              <data key="d4" xml:space="preserve"/>
              <data key="d6">
                <y:UMLClassNode>
                  <y:Geometry height="101.59999999999991" width="228.2658227848101" x="524.2444695599759" y="448.52187499999985"/>
                  <y:Fill color="#FF9900" transparent="false"/>
                  <y:BorderStyle color="#000000" type="line" width="1.0"/>
                  <y:NodeLabel alignment="center" autoSizePolicy="content" fontFamily="Dialog" fontSize="13" fontStyle="bold" hasBackgroundColor="false" hasLineColor="false" height="19.1328125" horizontalTextPosition="center" iconTextGap="4" modelName="custom" textColor="#000000" verticalTextPosition="bottom" visible="true" width="43.32373046875" x="92.47104615803005" xml:space="preserve" y="3.0">Actor<y:LabelModel><y:SmartNodeLabelModel distance="4.0"/></y:LabelModel><y:ModelParameter><y:SmartNodeLabelModelParameter labelRatioX="0.0" labelRatioY="0.0" nodeRatioX="0.0" nodeRatioY="0.0" offsetX="0.0" offsetY="0.0" upX="0.0" upY="-1.0"/></y:ModelParameter></y:NodeLabel>
                  <y:UML clipContent="true" constraint="" hasDetailsColor="false" omitDetails="false" stereotype="" use3DEffect="true">
                    <y:AttributeLabel xml:space="preserve">-scripts: Vec&lt;Fn(kwento) -&gt; String&gt;</y:AttributeLabel>
                    <y:MethodLabel xml:space="preserve"/>
                  </y:UML>
                </y:UMLClassNode>
              </data>
            </node>
            <node id="n2::n1::n4">
              <data key="d4" xml:space="preserve"/>
              <data key="d6">
                <y:UMLClassNode>
                  <y:Geometry height="121.59999999999991" width="100.0" x="782.5103174603174" y="438.52187499999985"/>
                  <y:Fill color="#FF9900" transparent="false"/>
                  <y:BorderStyle color="#000000" type="line" width="1.0"/>
                  <y:NodeLabel alignment="center" autoSizePolicy="content" fontFamily="Dialog" fontSize="13" fontStyle="bold" hasBackgroundColor="false" hasLineColor="false" height="19.1328125" horizontalTextPosition="center" iconTextGap="4" modelName="custom" textColor="#000000" verticalTextPosition="bottom" visible="true" width="37.4140625" x="31.29296875" xml:space="preserve" y="3.0">Item<y:LabelModel><y:SmartNodeLabelModel distance="4.0"/></y:LabelModel><y:ModelParameter><y:SmartNodeLabelModelParameter labelRatioX="0.0" labelRatioY="0.0" nodeRatioX="0.0" nodeRatioY="0.0" offsetX="0.0" offsetY="0.0" upX="0.0" upY="-1.0"/></y:ModelParameter></y:NodeLabel>
                  <y:UML clipContent="true" constraint="" hasDetailsColor="false" omitDetails="false" stereotype="" use3DEffect="true">
                    <y:AttributeLabel xml:space="preserve"/>
                    <y:MethodLabel xml:space="preserve"/>
                  </y:UML>
                </y:UMLClassNode>
              </data>
            </node>
          </graph>
        </node>
        <node id="n2::n2" yfiles.foldertype="group">
          <data key="d4" xml:space="preserve"/>
          <data key="d6">
            <y:ProxyAutoBoundsNode>
              <y:Realizers active="0">
                <y:GroupNode>
                  <y:Geometry height="640.0736749224641" width="224.80238095238087" x="1096.5103174603173" y="200.1999999999999"/>
                  <y:Fill color="#F5F5F500" transparent="false"/>
                  <y:BorderStyle color="#000000" type="dashed" width="1.0"/>
                  <y:NodeLabel alignment="right" autoSizePolicy="node_width" backgroundColor="#EBEBEB33" borderDistance="0.0" fontFamily="Dialog" fontSize="15" fontStyle="plain" hasLineColor="false" height="21.4609375" horizontalTextPosition="center" iconTextGap="4" modelName="internal" modelPosition="t" textColor="#000000" verticalTextPosition="bottom" visible="true" width="224.80238095238087" x="0.0" xml:space="preserve" y="0.0">Process</y:NodeLabel>
                  <y:Shape type="roundrectangle"/>
                  <y:State closed="false" closedHeight="50.0" closedWidth="50.0" innerGraphDisplayEnabled="false"/>
                  <y:Insets bottom="15" bottomF="15.0" left="15" leftF="15.0" right="15" rightF="15.0" top="15" topF="15.0"/>
                  <y:BorderInsets bottom="0" bottomF="0.0" left="0" leftF="8.036970075409045E-5" right="0" rightF="1.8936384321932564E-4" top="0" topF="0.0"/>
                </y:GroupNode>
                <y:GroupNode>
                  <y:Geometry height="50.0" width="50.0" x="1091.0321428571428" y="118.5390625"/>
                  <y:Fill color="#F5F5F5" transparent="false"/>
                  <y:BorderStyle color="#000000" type="dashed" width="1.0"/>
                  <y:NodeLabel alignment="right" autoSizePolicy="node_width" backgroundColor="#EBEBEB" borderDistance="0.0" fontFamily="Dialog" fontSize="15" fontStyle="plain" hasLineColor="false" height="21.4609375" horizontalTextPosition="center" iconTextGap="4" modelName="internal" modelPosition="t" textColor="#000000" verticalTextPosition="bottom" visible="true" width="65.201171875" x="-7.6005859375" xml:space="preserve" y="0.0">Folder 3</y:NodeLabel>
                  <y:Shape type="roundrectangle"/>
                  <y:State closed="true" closedHeight="50.0" closedWidth="50.0" innerGraphDisplayEnabled="false"/>
                  <y:Insets bottom="5" bottomF="5.0" left="5" leftF="5.0" right="5" rightF="5.0" top="5" topF="5.0"/>
                  <y:BorderInsets bottom="0" bottomF="0.0" left="0" leftF="0.0" right="0" rightF="0.0" top="0" topF="0.0"/>
                </y:GroupNode>
              </y:Realizers>
            </y:ProxyAutoBoundsNode>
          </data>
          <graph edgedefault="directed" id="n2::n2:">
            <node id="n2::n2::n0">
              <data key="d4" xml:space="preserve"/>
              <data key="d6">
                <y:UMLClassNode>
                  <y:Geometry height="102.39999999999992" width="194.8020022246942" x="1111.5105068241608" y="236.6609374999999"/>
                  <y:Fill color="#00CC00" transparent="false"/>
                  <y:BorderStyle color="#000000" type="line" width="1.0"/>
                  <y:NodeLabel alignment="center" autoSizePolicy="content" fontFamily="Dialog" fontSize="13" fontStyle="bold" hasBackgroundColor="false" hasLineColor="false" height="19.1328125" horizontalTextPosition="center" iconTextGap="4" modelName="custom" textColor="#000000" verticalTextPosition="bottom" visible="true" width="38.5947265625" x="78.1036378310971" xml:space="preserve" y="3.0">Verb<y:LabelModel><y:SmartNodeLabelModel distance="4.0"/></y:LabelModel><y:ModelParameter><y:SmartNodeLabelModelParameter labelRatioX="0.0" labelRatioY="0.0" nodeRatioX="0.0" nodeRatioY="0.0" offsetX="0.0" offsetY="0.0" upX="0.0" upY="-1.0"/></y:ModelParameter></y:NodeLabel>
                  <y:UML clipContent="true" constraint="" hasDetailsColor="false" omitDetails="false" stereotype="" use3DEffect="true">
                    <y:AttributeLabel xml:space="preserve">+syntax</y:AttributeLabel>
                    <y:MethodLabel xml:space="preserve">+process(kwento, input_data)
+syntax()</y:MethodLabel>
                  </y:UML>
                </y:UMLClassNode>
              </data>
            </node>
            <node id="n2::n2::n1">
              <data key="d4" xml:space="preserve"/>
              <data key="d6">
                <y:UMLClassNode>
                  <y:Geometry height="202.1517999224642" width="185.5506329113923" x="1111.510397830018" y="623.1218749999998"/>
                  <y:Fill color="#00CC00" transparent="false"/>
                  <y:BorderStyle color="#000000" type="line" width="1.0"/>
                  <y:NodeLabel alignment="center" autoSizePolicy="content" fontFamily="Dialog" fontSize="13" fontStyle="bold" hasBackgroundColor="false" hasLineColor="false" height="19.1328125" horizontalTextPosition="center" iconTextGap="4" modelName="custom" textColor="#000000" verticalTextPosition="bottom" visible="true" width="59.30078125" x="63.12492583069616" xml:space="preserve" y="3.0">Kwento<y:LabelModel><y:SmartNodeLabelModel distance="4.0"/></y:LabelModel><y:ModelParameter><y:SmartNodeLabelModelParameter labelRatioX="0.0" labelRatioY="0.0" nodeRatioX="0.0" nodeRatioY="0.0" offsetX="0.0" offsetY="0.0" upX="0.0" upY="-1.0"/></y:ModelParameter></y:NodeLabel>
                  <y:UML clipContent="true" constraint="" hasDetailsColor="false" omitDetails="false" stereotype="" use3DEffect="true">
                    <y:AttributeLabel xml:space="preserve">+actors: Actor
+locations: Location
+items: Item
+verbs: Verb
-interpreter: Interpreter
-observer: KwentoObserver
-settings: Settings
+protagonist: Protagonist
</y:AttributeLabel>
                    <y:MethodLabel xml:space="preserve">+new()
+run()
-notify()</y:MethodLabel>
                  </y:UML>
                </y:UMLClassNode>
              </data>
            </node>
          </graph>
        </node>
        <node id="n2::n3">
          <data key="d4" xml:space="preserve"/>
          <data key="d6">
            <y:UMLClassNode>
              <y:Geometry height="28.0" width="100.0" x="1351.3126984126984" y="485.3218749999998"/>
              <y:Fill color="#008000" transparent="false"/>
              <y:BorderStyle color="#000000" type="line" width="1.0"/>
              <y:NodeLabel alignment="center" autoSizePolicy="content" fontFamily="Dialog" fontSize="13" fontStyle="bold" hasBackgroundColor="false" hasLineColor="false" height="19.1328125" horizontalTextPosition="center" iconTextGap="4" modelName="custom" textColor="#FFFFFF" verticalTextPosition="bottom" visible="true" width="65.36279296875" x="17.318603515625" xml:space="preserve" y="3.0">Settings<y:LabelModel><y:SmartNodeLabelModel distance="4.0"/></y:LabelModel><y:ModelParameter><y:SmartNodeLabelModelParameter labelRatioX="0.0" labelRatioY="0.0" nodeRatioX="0.0" nodeRatioY="0.0" offsetX="0.0" offsetY="0.0" upX="0.0" upY="-1.0"/></y:ModelParameter></y:NodeLabel>
              <y:UML clipContent="true" constraint="" hasDetailsColor="false" omitDetails="false" stereotype="" use3DEffect="true">
                <y:AttributeLabel xml:space="preserve"/>
                <y:MethodLabel xml:space="preserve"/>
              </y:UML>
            </y:UMLClassNode>
          </data>
        </node>
        <node id="n2::n4">
          <data key="d4" xml:space="preserve"/>
          <data key="d6">
            <y:UMLClassNode>
              <y:Geometry height="75.19999999999999" width="153.1034482758621" x="15.000259989053077" y="250.26093749999987"/>
              <y:Fill color="#FFCC00" transparent="false"/>
              <y:BorderStyle color="#000000" type="line" width="1.0"/>
              <y:NodeLabel alignment="center" autoSizePolicy="content" fontFamily="Dialog" fontSize="13" fontStyle="bold" hasBackgroundColor="false" hasLineColor="false" height="19.1328125" horizontalTextPosition="center" iconTextGap="4" modelName="custom" textColor="#000000" verticalTextPosition="bottom" visible="true" width="89.7568359375" x="31.673306169181046" xml:space="preserve" y="3.0">Protagonist<y:LabelModel><y:SmartNodeLabelModel distance="4.0"/></y:LabelModel><y:ModelParameter><y:SmartNodeLabelModelParameter labelRatioX="0.0" labelRatioY="0.0" nodeRatioX="0.0" nodeRatioY="0.0" offsetX="0.0" offsetY="0.0" upX="0.0" upY="-1.0"/></y:ModelParameter></y:NodeLabel>
              <y:UML clipContent="true" constraint="" hasDetailsColor="false" omitDetails="false" stereotype="" use3DEffect="true">
                <y:AttributeLabel xml:space="preserve">+inventory: Container</y:AttributeLabel>
                <y:MethodLabel xml:space="preserve">+go_to(location)</y:MethodLabel>
              </y:UML>
            </y:UMLClassNode>
          </data>
        </node>
      </graph>
    </node>
    <node id="n3" yfiles.foldertype="group">
      <data key="d4" xml:space="preserve"/>
      <data key="d6">
        <y:ProxyAutoBoundsNode>
          <y:Realizers active="0">
            <y:GroupNode>
              <y:Geometry height="174.59375000000023" width="90.0" x="2500.8634920634922" y="637.7368374612319"/>
              <y:Fill color="#F5F5F500" transparent="false"/>
              <y:BorderStyle color="#000000" type="dashed" width="1.0"/>
              <y:NodeLabel alignment="right" autoSizePolicy="node_width" backgroundColor="#EBEBEB33" borderDistance="0.0" fontFamily="Dialog" fontSize="15" fontStyle="plain" hasLineColor="false" height="21.4609375" horizontalTextPosition="center" iconTextGap="4" modelName="internal" modelPosition="t" textColor="#000000" verticalTextPosition="bottom" visible="true" width="90.0" x="0.0" xml:space="preserve" y="0.0">Outside</y:NodeLabel>
              <y:Shape type="roundrectangle"/>
              <y:State closed="false" closedHeight="50.0" closedWidth="50.0" innerGraphDisplayEnabled="false"/>
              <y:Insets bottom="15" bottomF="15.0" left="15" leftF="15.0" right="15" rightF="15.0" top="15" topF="15.0"/>
              <y:BorderInsets bottom="0" bottomF="2.2737367544323206E-13" left="0" leftF="0.0" right="0" rightF="0.0" top="0" topF="0.0"/>
            </y:GroupNode>
            <y:GroupNode>
              <y:Geometry height="50.0" width="50.0" x="0.0" y="60.0"/>
              <y:Fill color="#F5F5F5" transparent="false"/>
              <y:BorderStyle color="#000000" type="dashed" width="1.0"/>
              <y:NodeLabel alignment="right" autoSizePolicy="node_width" backgroundColor="#EBEBEB" borderDistance="0.0" fontFamily="Dialog" fontSize="15" fontStyle="plain" hasLineColor="false" height="21.4609375" horizontalTextPosition="center" iconTextGap="4" modelName="internal" modelPosition="t" textColor="#000000" verticalTextPosition="bottom" visible="true" width="74.74462890625" x="-12.372314453125" xml:space="preserve" y="0.0">Folder 11</y:NodeLabel>
              <y:Shape type="roundrectangle"/>
              <y:State closed="true" closedHeight="50.0" closedWidth="50.0" innerGraphDisplayEnabled="false"/>
              <y:Insets bottom="5" bottomF="5.0" left="5" leftF="5.0" right="5" rightF="5.0" top="5" topF="5.0"/>
              <y:BorderInsets bottom="0" bottomF="0.0" left="0" leftF="0.0" right="0" rightF="0.0" top="0" topF="0.0"/>
            </y:GroupNode>
          </y:Realizers>
        </y:ProxyAutoBoundsNode>
      </data>
      <graph edgedefault="directed" id="n3:">
        <node id="n3::n0">
          <data key="d4" xml:space="preserve"/>
          <data key="d6">
            <y:SVGNode>
              <y:Geometry height="100.0" width="60.0" x="2515.8634920634922" y="674.1977749612319"/>
              <y:Fill color="#FFCC00" transparent="false"/>
              <y:BorderStyle color="#000000" type="line" width="1.0"/>
              <y:NodeLabel alignment="center" autoSizePolicy="content" fontFamily="Dialog" fontSize="13" fontStyle="plain" hasBackgroundColor="false" hasLineColor="false" height="19.1328125" horizontalTextPosition="center" iconTextGap="4" modelName="custom" textColor="#000000" verticalTextPosition="bottom" visible="true" width="44.45361328125" x="7.773193359375" xml:space="preserve" y="104.0">Player<y:LabelModel><y:SmartNodeLabelModel distance="4.0"/></y:LabelModel><y:ModelParameter><y:SmartNodeLabelModelParameter labelRatioX="0.0" labelRatioY="-0.5" nodeRatioX="0.0" nodeRatioY="0.5" offsetX="0.0" offsetY="4.0" upX="0.0" upY="-1.0"/></y:ModelParameter></y:NodeLabel>
              <y:SVGNodeProperties usingVisualBounds="false"/>
              <y:SVGModel svgBoundsPolicy="0">
                <y:SVGContent refid="1"/>
              </y:SVGModel>
            </y:SVGNode>
          </data>
        </node>
      </graph>
    </node>
    <edge id="n2::e0" source="n2::n1::n0" target="n2::n0::n0">
      <data key="d10">
        <y:PolyLineEdge>
          <y:Path sx="-78.375" sy="-31.19999999999999" tx="0.0" ty="31.200000000000045">
            <y:Point x="778.9269841269842" y="677.4977749612319"/>
            <y:Point x="414.24444444444447" y="677.4977749612319"/>
          </y:Path>
          <y:LineStyle color="#000000" type="line" width="1.0"/>
          <y:Arrows source="diamond" target="none"/>
          <y:BendStyle smoothed="false"/>
        </y:PolyLineEdge>
      </data>
    </edge>
    <edge id="e0" source="n2::n2::n1" target="n1::n2::n2">
      <data key="d10">
        <y:PolyLineEdge>
          <y:Path sx="57.9845727848101" sy="-101.0758999612321" tx="-44.75" ty="45.19999999999993">
            <y:Point x="1262.2702870705243" y="591.6218749999998"/>
            <y:Point x="2845.6134920634922" y="591.6218749999998"/>
          </y:Path>
          <y:LineStyle color="#000000" type="line" width="1.0"/>
          <y:Arrows source="diamond" target="none"/>
          <y:BendStyle smoothed="false"/>
        </y:PolyLineEdge>
      </data>
    </edge>
    <edge id="n2::e1" source="n2::n2::n1" target="n2::n3">
      <data key="d10">
        <y:PolyLineEdge>
          <y:Path sx="34.79074367088606" sy="-101.0758999612321" tx="0.0" ty="14.0">
            <y:Point x="1239.0764579566003" y="528.8218749999999"/>
            <y:Point x="1401.3126984126984" y="528.8218749999999"/>
          </y:Path>
          <y:LineStyle color="#000000" type="line" width="1.0"/>
          <y:Arrows source="diamond" target="none"/>
          <y:BendStyle smoothed="false"/>
        </y:PolyLineEdge>
      </data>
    </edge>
    <edge id="n2::e2" source="n2::n2::n1" target="n2::n1::n2">
      <data key="d10">
        <y:PolyLineEdge>
          <y:Path sx="-34.79074367088606" sy="-101.0758999612321" tx="46.33333333333333" ty="53.19999999999996">
            <y:Point x="1169.4949706148282" y="575.6218749999998"/>
            <y:Point x="1028.3436507936508" y="575.6218749999998"/>
          </y:Path>
          <y:LineStyle color="#000000" type="line" width="1.0"/>
          <y:Arrows source="diamond" target="none"/>
          <y:BendStyle smoothed="false"/>
        </y:PolyLineEdge>
      </data>
    </edge>
    <edge id="n2::e3" source="n2::n2::n1" target="n2::n1::n3">
      <data key="d10">
        <y:PolyLineEdge>
          <y:Path sx="-81.17840189873414" sy="-101.0758999612321" tx="57.066455696202524" ty="50.799999999999955">
            <y:Point x="1123.10731238698" y="607.6218749999998"/>
            <y:Point x="695.4438366485834" y="607.6218749999998"/>
          </y:Path>
          <y:LineStyle color="#000000" type="line" width="1.0"/>
          <y:Arrows source="diamond" target="none"/>
          <y:BendStyle smoothed="false"/>
        </y:PolyLineEdge>
      </data>
    </edge>
    <edge id="e1" source="n2::n2::n1" target="n1::n1">
      <data key="d10">
        <y:PolyLineEdge>
          <y:Path sx="81.17840189873414" sy="-101.0758999612321" tx="0.0" ty="-37.599999999999994">
            <y:Point x="1285.4641161844484" y="607.6218749999998"/>
            <y:Point x="2695.8634920634922" y="607.6218749999998"/>
          </y:Path>
          <y:LineStyle color="#000000" type="line" width="1.0"/>
          <y:Arrows source="none" target="none"/>
          <y:BendStyle smoothed="false"/>
        </y:PolyLineEdge>
      </data>
    </edge>
    <edge id="e2" source="n2::n2::n1" target="n1::n0::n1">
      <data key="d10">
        <y:PolyLineEdge>
          <y:Path sx="0.0" sy="101.0758999612321" tx="0.0" ty="-37.60000000000002">
            <y:Point x="1204.2857142857142" y="859.830587461232"/>
            <y:Point x="2720.3634920634922" y="859.830587461232"/>
          </y:Path>
          <y:LineStyle color="#000000" type="line" width="1.0"/>
          <y:Arrows source="none" target="none"/>
          <y:BendStyle smoothed="false"/>
        </y:PolyLineEdge>
      </data>
    </edge>
    <edge id="n2::e4" source="n2::n2::n1" target="n2::n1::n4">
      <data key="d10">
        <y:PolyLineEdge>
          <y:Path sx="-57.9845727848101" sy="-101.0758999612321" tx="25.0" ty="60.799999999999955">
            <y:Point x="1146.3011415009041" y="591.6218749999998"/>
            <y:Point x="857.5103174603174" y="591.6218749999998"/>
          </y:Path>
          <y:LineStyle color="#000000" type="line" width="1.0"/>
          <y:Arrows source="diamond" target="none"/>
          <y:BendStyle smoothed="false"/>
        </y:PolyLineEdge>
      </data>
    </edge>
    <edge id="n2::e5" source="n2::n4" target="n2::n1::n3">
      <data key="d10">
        <y:PolyLineEdge>
          <y:Path sx="-38.27586206896552" sy="37.599999999999994" tx="0.0" ty="-50.799999999999955">
            <y:Point x="53.2761220580186" y="386.56093749999985"/>
            <y:Point x="638.3773809523809" y="386.56093749999985"/>
          </y:Path>
          <y:LineStyle color="#000000" type="line" width="1.0"/>
          <y:Arrows source="none" target="white_delta"/>
          <y:BendStyle smoothed="false"/>
        </y:PolyLineEdge>
      </data>
    </edge>
    <edge id="n2::n1::e0" source="n2::n1::n4" target="n2::n1::n0">
      <data key="d10">
        <y:PolyLineEdge>
          <y:Path sx="-25.0" sy="60.799999999999955" tx="26.125" ty="-31.19999999999999">
            <y:Point x="807.5103174603174" y="645.4977749612319"/>
            <y:Point x="883.4269841269842" y="645.4977749612319"/>
          </y:Path>
          <y:LineStyle color="#000000" type="line" width="1.0"/>
          <y:Arrows source="none" target="white_delta"/>
          <y:BendStyle smoothed="false"/>
        </y:PolyLineEdge>
      </data>
    </edge>
    <edge id="n2::n1::e1" source="n2::n1::n3" target="n2::n1::n0">
      <data key="d10">
        <y:PolyLineEdge>
          <y:Path sx="-57.066455696202524" sy="50.799999999999955" tx="-26.125" ty="-31.19999999999999">
            <y:Point x="581.3109252561784" y="661.4977749612319"/>
            <y:Point x="831.1769841269842" y="661.4977749612319"/>
          </y:Path>
          <y:LineStyle color="#000000" type="line" width="1.0"/>
          <y:Arrows source="none" target="white_delta"/>
          <y:BendStyle smoothed="false"/>
        </y:PolyLineEdge>
      </data>
    </edge>
    <edge id="n2::n1::e2" source="n2::n1::n2" target="n2::n1::n1">
      <data key="d10">
        <y:PolyLineEdge>
          <y:Path sx="0.0" sy="53.19999999999993" tx="34.75" ty="-31.200000000000045">
            <y:Point x="982.0103174603174" y="568.0218749999997"/>
            <y:Point x="977.3019841269842" y="568.0218749999997"/>
          </y:Path>
          <y:LineStyle color="#000000" type="line" width="1.0"/>
          <y:Arrows source="none" target="white_delta"/>
          <y:BendStyle smoothed="false"/>
        </y:PolyLineEdge>
      </data>
    </edge>
    <edge id="n2::n1::e3" source="n2::n1::n0" target="n2::n1::n1">
      <data key="d10">
        <y:PolyLineEdge>
          <y:Path sx="0.0" sy="31.19999999999999" tx="-34.75" ty="-31.19999999999999">
            <y:Point x="857.3019841269842" y="770.8977749612319"/>
            <y:Point x="907.8019841269842" y="770.8977749612319"/>
          </y:Path>
          <y:LineStyle color="#000000" type="line" width="1.0"/>
          <y:Arrows source="none" target="white_delta"/>
          <y:BendStyle smoothed="false"/>
        </y:PolyLineEdge>
      </data>
    </edge>
    <edge id="n2::n1::e4" source="n2::n1::n0" target="n2::n1::n2">
      <data key="d10">
        <y:PolyLineEdge>
          <y:Path sx="78.375" sy="-31.19999999999999" tx="-46.33333333333333" ty="53.19999999999996"/>
          <y:LineStyle color="#000000" type="line" width="1.0"/>
          <y:Arrows source="none" target="none"/>
          <y:BendStyle smoothed="false"/>
        </y:PolyLineEdge>
      </data>
    </edge>
    <edge id="e3" source="n0::n1::n2" target="n2::n1::n4">
      <data key="d10">
        <y:PolyLineEdge>
          <y:Path sx="0.0" sy="24.769442246835467" tx="33.33333333333333" ty="-60.799999999999955">
            <y:Point x="2216.2380952380954" y="386.56093749999985"/>
            <y:Point x="865.8436507936508" y="386.56093749999985"/>
          </y:Path>
          <y:LineStyle color="#000000" type="line" width="1.0"/>
          <y:Arrows source="none" target="white_delta"/>
          <y:BendStyle smoothed="false"/>
        </y:PolyLineEdge>
      </data>
    </edge>
    <edge id="e4" source="n0::n1::n1" target="n2::n1::n4">
      <data key="d10">
        <y:PolyLineEdge>
          <y:Path sx="-25.0" sy="24.769442246835453" tx="0.0" ty="-60.799999999999955">
            <y:Point x="2101.3126984126984" y="104.69999999999993"/>
            <y:Point x="832.5103174603174" y="104.69999999999993"/>
          </y:Path>
          <y:LineStyle color="#000000" type="dashed" width="1.0"/>
          <y:Arrows source="none" target="white_delta"/>
          <y:BendStyle smoothed="false"/>
        </y:PolyLineEdge>
      </data>
    </edge>
    <edge id="n2::e6" source="n2::n4" target="n2::n0::n1">
      <data key="d10">
        <y:PolyLineEdge>
          <y:Path sx="0.0" sy="-37.599999999999994" tx="-83.71347398030943" ty="44.599999999999966">
            <y:Point x="91.55198412698412" y="104.69999999999993"/>
            <y:Point x="254.96073236889694" y="104.69999999999993"/>
          </y:Path>
          <y:LineStyle color="#000000" type="line" width="1.0"/>
          <y:Arrows source="white_diamond" target="none"/>
          <y:BendStyle smoothed="false"/>
        </y:PolyLineEdge>
      </data>
    </edge>
    <edge id="n1::n0::e0" source="n1::n0::n1" target="n1::n0::n0">
      <data key="d10">
        <y:PolyLineEdge>
          <y:Path sx="69.5" sy="0.0" tx="-59.5" ty="0.0"/>
          <y:LineStyle color="#000000" type="line" width="1.0"/>
          <y:Arrows source="none" target="none"/>
          <y:BendStyle smoothed="false"/>
        </y:PolyLineEdge>
      </data>
    </edge>
    <edge id="n1::n2::e0" source="n1::n2::n1" target="n1::n2::n2">
      <data key="d10">
        <y:PolyLineEdge>
          <y:Path sx="0.0" sy="-31.200000000000045" tx="44.75" ty="45.19999999999993">
            <y:Point x="2913.570238095238" y="560.0218749999997"/>
            <y:Point x="2935.1134920634922" y="560.0218749999997"/>
          </y:Path>
          <y:LineStyle color="#000000" type="line" width="1.0"/>
          <y:Arrows source="none" target="none"/>
          <y:BendStyle smoothed="false"/>
        </y:PolyLineEdge>
      </data>
    </edge>
    <edge id="n1::n2::e1" source="n1::n2::n2" target="n1::n2::n0">
      <data key="d10">
        <y:PolyLineEdge>
          <y:Path sx="0.0" sy="-45.19999999999993" tx="38.27586206896552" ty="51.19999999999993">
            <y:Point x="2890.3634920634922" y="354.5609374999998"/>
            <y:Point x="2915.6913382594416" y="354.5609374999998"/>
          </y:Path>
          <y:LineStyle color="#000000" type="line" width="1.0"/>
          <y:Arrows source="diamond" target="none"/>
          <y:BendStyle smoothed="false"/>
        </y:PolyLineEdge>
      </data>
    </edge>
    <edge id="e5" source="n2::n2::n0" target="n1::n2::n0">
      <data key="d10">
        <y:PolyLineEdge>
          <y:Path sx="48.70050055617355" sy="51.19999999999996" tx="-38.27586206896552" ty="51.19999999999993">
            <y:Point x="1257.6120084926815" y="362.9609374999999"/>
            <y:Point x="2839.1396141215105" y="362.9609374999999"/>
          </y:Path>
          <y:LineStyle color="#000000" type="line" width="1.0"/>
          <y:Arrows source="none" target="none"/>
          <y:BendStyle smoothed="false"/>
        </y:PolyLineEdge>
      </data>
    </edge>
    <edge id="e6" source="n3::n0" target="n1::n2::n1">
      <data key="d10">
        <y:PolyLineEdge>
          <y:Path sx="15.0" sy="50.0" tx="0.0" ty="31.200000000000045">
            <y:Point x="2560.8634920634922" y="827.830587461232"/>
            <y:Point x="2913.570238095238" y="827.830587461232"/>
          </y:Path>
          <y:LineStyle color="#000000" type="line" width="1.0"/>
          <y:Arrows source="none" target="none"/>
          <y:BendStyle smoothed="false"/>
        </y:PolyLineEdge>
      </data>
    </edge>
    <edge id="e7" source="n3::n0" target="n1::n0::n0">
      <data key="d10">
        <y:PolyLineEdge>
          <y:Path sx="-15.0" sy="50.0" tx="0.0" ty="-31.200000000000045">
            <y:Point x="2530.8634920634922" y="843.830587461232"/>
            <y:Point x="2879.3634920634922" y="843.830587461232"/>
          </y:Path>
          <y:LineStyle color="#000000" type="line" width="1.0"/>
          <y:Arrows source="none" target="none"/>
          <y:BendStyle smoothed="false"/>
        </y:PolyLineEdge>
      </data>
    </edge>
    <edge id="n2::e7" source="n2::n0::n1" target="n2::n1::n4">
      <data key="d10">
        <y:PolyLineEdge>
          <y:Path sx="0.0" sy="44.599999999999966" tx="-33.33333333333337" ty="-60.799999999999955">
            <y:Point x="338.6742063492064" y="303.86093749999986"/>
            <y:Point x="799.176984126984" y="303.86093749999986"/>
          </y:Path>
          <y:LineStyle color="#000000" type="line" width="1.0"/>
          <y:Arrows source="none" target="none"/>
          <y:BendStyle smoothed="false"/>
        </y:PolyLineEdge>
      </data>
    </edge>
    <edge id="n2::e8" source="n2::n2::n1" target="n2::n4">
      <data key="d10">
        <y:PolyLineEdge>
          <y:Path sx="-11.59691455696202" sy="-101.07589996123215" tx="38.27586206896551" ty="37.60000000000002">
            <y:Point x="1192.6888888888889" y="370.56093749999985"/>
            <y:Point x="129.82784619594963" y="370.56093749999985"/>
          </y:Path>
          <y:LineStyle color="#000000" type="line" width="1.0"/>
          <y:Arrows source="diamond" target="none"/>
          <y:BendStyle smoothed="false"/>
        </y:PolyLineEdge>
      </data>
    </edge>
    <edge id="n2::n2::e0" source="n2::n2::n1" target="n2::n2::n0">
      <data key="d10">
        <y:PolyLineEdge>
          <y:Path sx="11.59691455696202" sy="-101.07589996123215" tx="-48.700500556173665" ty="51.19999999999993">
            <y:Point x="1215.8826288426762" y="514.8218749999999"/>
            <y:Point x="1208.6888888888889" y="514.8218749999999"/>
            <y:Point x="1208.6888888888889" y="354.56093749999985"/>
            <y:Point x="1160.2110073803342" y="354.56093749999985"/>
          </y:Path>
          <y:LineStyle color="#000000" type="line" width="1.0"/>
          <y:Arrows source="diamond" target="none"/>
          <y:BendStyle smoothed="false"/>
        </y:PolyLineEdge>
      </data>
    </edge>
    <edge id="n0::e0" source="n0::n2" target="n0::n1::n1">
      <data key="d10">
        <y:PolyLineEdge>
          <y:Path sx="-34.75" sy="-44.599999999999966" tx="25.0" ty="24.769442246835453">
            <y:Point x="2471.6134920634922" y="100.86944224683542"/>
            <y:Point x="2151.3126984126984" y="100.86944224683542"/>
          </y:Path>
          <y:LineStyle color="#000000" type="line" width="1.0"/>
          <y:Arrows source="white_diamond" target="none"/>
          <y:BendStyle smoothed="false"/>
        </y:PolyLineEdge>
      </data>
    </edge>
    <edge id="n0::n1::e0" source="n0::n1::n0" target="n0::n1::n2">
      <data key="d10">
        <y:PolyLineEdge>
          <y:Path sx="-46.38765822784808" sy="14.0" tx="36.46244725738393" ty="-24.769442246835467"/>
          <y:LineStyle color="#000000" type="line" width="1.0"/>
          <y:Arrows source="none" target="white_delta"/>
          <y:BendStyle smoothed="false"/>
        </y:PolyLineEdge>
      </data>
    </edge>
    <edge id="n0::e1" source="n0::n1::n0" target="n0::n2">
      <data key="d10">
        <y:PolyLineEdge>
          <y:Path sx="46.38765822784808" sy="14.0" tx="34.75" ty="-44.599999999999966">
            <y:Point x="2345.4757534659434" y="84.86944224683542"/>
            <y:Point x="2541.1134920634922" y="84.86944224683542"/>
          </y:Path>
          <y:LineStyle color="#000000" type="dashed" width="1.0"/>
          <y:Arrows source="none" target="white_delta"/>
          <y:BendStyle smoothed="false"/>
        </y:PolyLineEdge>
      </data>
    </edge>
    <edge id="e8" source="n0::n1::n2" target="n2::n0::n1">
      <data key="d10">
        <y:PolyLineEdge>
          <y:Path sx="-36.46244725738393" sy="-24.769442246835467" tx="83.71347398030943" ty="44.599999999999966">
            <y:Point x="2179.7756479807113" y="136.69999999999993"/>
            <y:Point x="422.3876803295158" y="136.69999999999993"/>
          </y:Path>
          <y:LineStyle color="#000000" type="line" width="1.0"/>
          <y:Arrows source="diamond" target="none"/>
          <y:BendStyle smoothed="false"/>
        </y:PolyLineEdge>
      </data>
    </edge>
    <edge id="e9" source="n0::n0::n2" target="n2::n2::n0">
      <data key="d10">
        <y:PolyLineEdge>
          <y:Path sx="0.0" sy="14.0" tx="73.05075083426033" ty="-51.19999999999996">
            <y:Point x="1966.3126984126984" y="184.69999999999993"/>
            <y:Point x="1281.9622587707681" y="184.69999999999993"/>
          </y:Path>
          <y:LineStyle color="#000000" type="dashed" width="1.0"/>
          <y:Arrows source="none" target="white_delta"/>
          <y:BendStyle smoothed="false"/>
        </y:PolyLineEdge>
      </data>
    </edge>
    <edge id="e10" source="n0::n0::n1" target="n2::n2::n0">
      <data key="d10">
        <y:PolyLineEdge>
          <y:Path sx="0.0" sy="14.0" tx="-24.350250278086776" ty="-51.19999999999996">
            <y:Point x="1706.3126984126984" y="152.69999999999993"/>
            <y:Point x="1184.561257658421" y="152.69999999999993"/>
          </y:Path>
          <y:LineStyle color="#000000" type="dashed" width="1.0"/>
          <y:Arrows source="none" target="white_delta"/>
          <y:BendStyle smoothed="false"/>
        </y:PolyLineEdge>
      </data>
    </edge>
    <edge id="e11" source="n0::n0::n0" target="n2::n2::n0">
      <data key="d10">
        <y:PolyLineEdge>
          <y:Path sx="0.0" sy="14.0" tx="24.350250278086776" ty="-51.19999999999996">
            <y:Point x="1836.3126984126984" y="168.69999999999993"/>
            <y:Point x="1233.2617582145947" y="168.69999999999993"/>
          </y:Path>
          <y:LineStyle color="#000000" type="dashed" width="1.0"/>
          <y:Arrows source="none" target="white_delta"/>
          <y:BendStyle smoothed="false"/>
        </y:PolyLineEdge>
      </data>
    </edge>
    <edge id="e12" source="n0::n0::n3" target="n2::n2::n0">
      <data key="d9"/>
      <data key="d10">
        <y:PolyLineEdge>
          <y:Path sx="0.0" sy="14.0" tx="-73.05075083426033" ty="-51.19999999999996">
            <y:Point x="1576.3126984126984" y="120.69999999999993"/>
            <y:Point x="1135.8607571022476" y="120.69999999999993"/>
          </y:Path>
          <y:LineStyle color="#000000" type="dashed" width="1.0"/>
          <y:Arrows source="none" target="white_delta"/>
          <y:BendStyle smoothed="false"/>
        </y:PolyLineEdge>
      </data>
    </edge>
  </graph>
  <data key="d7">
    <y:Resources>
      <y:Resource id="1" xml:space="preserve">&lt;?xml version="1.0" encoding="UTF-8" standalone="no"?&gt;
&lt;!-- Created with Inkscape (http://www.inkscape.org/) --&gt;
&lt;svg
   xmlns:dc="http://purl.org/dc/elements/1.1/"
   xmlns:cc="http://web.resource.org/cc/"
   xmlns:rdf="http://www.w3.org/1999/02/22-rdf-syntax-ns#"
   xmlns:svg="http://www.w3.org/2000/svg"
   xmlns="http://www.w3.org/2000/svg"
   xmlns:sodipodi="http://sodipodi.sourceforge.net/DTD/sodipodi-0.dtd"
   xmlns:inkscape="http://www.inkscape.org/namespaces/inkscape"
   width="41"
   height="68.997391"
   id="svg2"
   sodipodi:version="0.32"
   inkscape:version="0.45.1"
   sodipodi:docbase="C:\Daten\alberts\projects\yfx"
   sodipodi:docname="uml_actor.svg"
   inkscape:output_extension="org.inkscape.output.svg.inkscape"
   version="1.0"&gt;
  &lt;defs
     id="defs4" /&gt;
  &lt;sodipodi:namedview
     id="base"
     pagecolor="#ffffff"
     bordercolor="#666666"
     borderopacity="1.0"
     inkscape:pageopacity="0.0"
     inkscape:pageshadow="2"
     inkscape:zoom="2.934351"
     inkscape:cx="144.21983"
     inkscape:cy="28.533711"
     inkscape:document-units="px"
     inkscape:current-layer="layer1"
     showgrid="true"
     inkscape:window-width="1280"
     inkscape:window-height="968"
     inkscape:window-x="-4"
     inkscape:window-y="-4"
     width="48px"
     height="48px"
     showborder="false"
     inkscape:showpageshadow="false" /&gt;
  &lt;metadata
     id="metadata7"&gt;
    &lt;rdf:RDF&gt;
      &lt;cc:Work
         rdf:about=""&gt;
        &lt;dc:format&gt;image/svg+xml&lt;/dc:format&gt;
        &lt;dc:type
           rdf:resource="http://purl.org/dc/dcmitype/StillImage" /&gt;
      &lt;/cc:Work&gt;
    &lt;/rdf:RDF&gt;
  &lt;/metadata&gt;
  &lt;g
     inkscape:label="Ebene 1"
     inkscape:groupmode="layer"
     id="layer1"
     transform="translate(-29.5,-42.959476)"&gt;
    &lt;a
       id="a3142"
       transform="matrix(1.0873906,0,0,1,-4.4741999,0)"&gt;
      &lt;path
         transform="translate(11.586889,5.2908993)"
         d="M 47.02914 47.36993 A 8.5197716 9.2013531 0 1 1  29.989597,47.36993 A 8.5197716 9.2013531 0 1 1  47.02914 47.36993 z"
         sodipodi:ry="9.2013531"
         sodipodi:rx="8.5197716"
         sodipodi:cy="47.36993"
         sodipodi:cx="38.509369"
         id="path2160"
         style="fill:none;fill-rule:evenodd;stroke:#000000;stroke-width:1px;stroke-linecap:butt;stroke-linejoin:miter;stroke-opacity:1"
         sodipodi:type="arc" /&gt;
    &lt;/a&gt;
    &lt;path
       sodipodi:type="arc"
       style="fill:none"
       id="path3134"
       sodipodi:cx="43.962021"
       sodipodi:cy="48.392303"
       sodipodi:rx="3.7486994"
       sodipodi:ry="0"
       d="M 47.71072 48.392303 A 3.7486994 0 0 1 1  40.213321,48.392303 A 3.7486994 0 0 1 1  47.71072 48.392303 z" /&gt;
    &lt;path
       style="fill:none;fill-rule:evenodd;stroke:#000000;stroke-width:1.24319649px;stroke-linecap:butt;stroke-linejoin:miter;stroke-opacity:1"
       d="M 50,61.33709 C 50,91.363211 50,92.247838 50,92.247838"
       id="path3136" /&gt;
    &lt;path
       style="fill:none;fill-rule:evenodd;stroke:#000000;stroke-width:1px;stroke-linecap:butt;stroke-linejoin:miter;stroke-opacity:1"
       d="M 69.760668,72.362183 C 69.760668,72.362183 69.760668,72.362183 50.239332,72.362183 C 30.239332,72.362183 30.239332,72.362183 30.239332,72.362183 L 30.239332,72.362183"
       id="path3138" /&gt;
    &lt;path
       style="fill:none;fill-rule:evenodd;stroke:#000000;stroke-width:1px;stroke-linecap:butt;stroke-linejoin:miter;stroke-opacity:1"
       d="M 30,111.45687 C 30,111.45687 30,111.45687 50,92.013532 C 70,111.45687 70,111.45687 70,111.45687"
       id="path3140" /&gt;
  &lt;/g&gt;
&lt;/svg&gt;
</y:Resource>
    </y:Resources>
  </data>
</graphml>
